{
  "student": [
    {
      "id": 1,
      "name": "Tushar Shinde",
      "branch": "mechanical",
      "sport": "Chess",
      "code": "BEME",
      "address": "jalgaon",
      "prnNumber": "202020"
    },
    {
      "id": 2,
      "name": "Kanchan",
      "branch": "IT",
      "sport": "CRICKET",
      "code": "BEIT",
      "address": "mumbai",
      "prnNumber": "1234546789"
    },
    {
      "id": 3,
      "name": "Kanchan wghe",
      "branch": "IT",
      "sport": "CRICKET",
      "code": "BEIT",
      "address": "jjj",
      "prnNumber": "111"
    },
    {
      "name": "madhukarr",
      "branch": "E&TC",
      "sport": "football",
      "code": "SEET",
      "id": 4,
      "address": "jjjj",
      "prnNumber": "1111"
    },
    {
      "name": "pallavi",
      "branch": "mechanical",
      "sport": "chess",
      "address": "jalgaon",
      "prnNumber": "1011111111",
      "code": "BEME",
      "id": 5
    },
    {
      "name": "tushar",
      "branch": "aaa",
      "sport": "aaa",
      "address": "pune",
      "prnNumber": "7744992729245",
      "code": "aaaa",
      "id": 6
    },
    {
      "name": "a",
      "branch": "a",
      "sport": "a",
      "address": "a",
      "prnNumber": "1",
      "code": "a",
      "id": 7
    }
  ],
  "state": [
    {
      "id": 1,
      "name": "Maharashtra",
      "code": "MH"
    },
    {
      "id": 1,
      "name": "Panjab",
      "code": "PB"
    },
    {
      "id": 1,
      "name": "Karnataka",
      "code": "KR"
    },
    {
      "id": 1,
      "name": "Gujrat",
      "code": "GJ"
    }
  ]
}